Prepare 'oce' objects as data frames for 'ggplot2' — fortify.ctd • ggoce
…
    A tibble::tibble()

    Examples

library(ggplot2)
data(ctd, package = "oce")
fortify(ctd)

#> Loading required package: oce
#> Loading required package: gsw
#> Loading required package: testthat
#> Loading required package: sf
#> Linking to GEOS 3.8.1, GDAL 3.1.4, PROJ 6.3.1
#> # A tibble: 181 x 7
#>     scan timeS pressure depth temperature salinity  flag
#>    <int> <dbl>    <dbl> <dbl>       <dbl>    <dbl> <dbl>
#>  1   130   129     1.48  1.47        14.2     29.9     0
#>  2   131   130     1.67  1.66        14.2     29.9     0
#>  3   132   131     2.05  2.04        14.2     29.9     0
#>  4   133   132     2.24  2.22        14.2     29.9     0
#>  5   134   133     2.62  2.60        14.2     29.9     0
#>  6   135   134     2.67  2.65        14.2     29.9     0
#>  7   136   135     3.00  2.98        14.2     29.9     0
#>  8   137   136     3.20  3.17        14.1     30.0     0
#>  9   138   137     3.48  3.45        14.1     30.0     0
#> 10   139   138     3.72  3.69        14.1     30.0     0
#> # … with 171 more rows
…
